<svg xmlns="http://www.w3.org/2000/svg" width="27" height="14.85" viewBox="0 0 27 14.85">
  <path id="ic_attachment_24px" d="M2,14.425A7.421,7.421,0,0,1,9.425,7H23.6a5.4,5.4,0,0,1,0,10.8H12.125a3.375,3.375,0,1,1,0-6.75H22.25v2.7H12c-.743,0-.743,1.35,0,1.35H23.6a2.7,2.7,0,0,0,0-5.4H9.425a4.725,4.725,0,0,0,0,9.45H22.25v2.7H9.425A7.421,7.421,0,0,1,2,14.425Z" transform="translate(-2 -7)" fill="#7b7b7b"/>
</svg>
