<svg xmlns="http://www.w3.org/2000/svg" width="10" height="10" viewBox="0 0 10 10">
  <path id="ic_loupe_24px" d="M13,7H11v4H7v2h4v4h2V13h4V11H13Z" transform="translate(-7 -7)" fill="#404040"/>
</svg>
