<?xml version="1.0" encoding="utf-8"?>
<!-- Generator: Adobe Illustrator 17.0.0, SVG Export Plug-In . SVG Version: 6.00 Build 0)  -->
<!DOCTYPE svg PUBLIC "-//W3C//DTD SVG 1.1//EN" "http://www.w3.org/Graphics/SVG/1.1/DTD/svg11.dtd">
<svg version="1.1" id="Layer_1" xmlns="http://www.w3.org/2000/svg" xmlns:xlink="http://www.w3.org/1999/xlink" x="0px" y="0px"
	 width="701.642px" height="246px" viewBox="0 0 701.642 246" enable-background="new 0 0 701.642 246" xml:space="preserve">
<path fill-rule="evenodd" clip-rule="evenodd" fill="#2C3B90" d="M32.442,81.549v12.603c0,10.135,8.291,18.425,18.425,18.425h0
	c10.134,0,18.425-8.29,18.425-18.425V2.025h31.181v92.127c0,27.284-22.322,49.605-49.606,49.605h-0.001
	c-27.283,0-49.606-22.322-49.606-49.605V81.549H32.442z"/>
<path fill-rule="evenodd" clip-rule="evenodd" fill="#2C3B90" d="M117.119,2.025h34.016v88.407c0,12.178,9.965,22.144,22.144,22.144
	h3.901c12.179,0,22.144-9.966,22.144-22.144V2.025h34.016v90.654c0,28.094-22.985,51.078-51.078,51.078h-14.065
	c-28.093,0-51.078-22.984-51.078-51.078V2.025z"/>
<polygon fill-rule="evenodd" clip-rule="evenodd" fill="#2C3B90" points="351.366,2.025 382.548,2.025 382.548,8.705 
	382.548,143.757 351.366,143.757 351.366,69.901 325.417,120.829 306.753,120.829 281.215,70.708 281.215,143.757 250.034,143.757 
	250.034,9.511 250.034,2.025 281.215,2.025 316.085,70.462 "/>
<path fill-rule="evenodd" clip-rule="evenodd" fill="#2C3B90" d="M432.923,33.206h38.966c3.775,0,6.863,3.088,6.863,6.863
	s-3.088,6.863-6.863,6.863h-38.966V33.206z M434.141,76.307h40.516c8.577,0,15.593,7.017,15.593,15.593v5.083
	c0,8.576-7.017,15.593-15.593,15.593h-40.516c-0.67,0-1.219-0.548-1.219-1.218V77.525C432.923,76.855,433.471,76.307,434.141,76.307
	z M401.742,46.931v29.375v67.451h74.133c25.128,0,45.687-20.559,45.687-45.688v-5.45c0-14.518-6.863-27.511-17.504-35.894
	c2.832-5.236,4.443-11.218,4.443-17.559c0-20.428-16.713-37.141-37.141-37.141h-69.619V46.931z"/>
<path fill-rule="evenodd" clip-rule="evenodd" fill="#2C3B90" d="M607.81,32.42c22.7,0,41.102,18.402,41.102,41.103
	c0,22.7-18.402,41.102-41.102,41.102c-22.7,0-41.102-18.402-41.102-41.102C566.708,50.823,585.11,32.42,607.81,32.42 M607.811,1.585
	c39.73,0,71.937,32.208,71.937,71.938c0,39.729-32.207,71.937-71.937,71.937c-39.73,0-71.938-32.208-71.938-71.937
	C535.873,33.793,568.081,1.585,607.811,1.585z"/>
<rect x="1.261" y="170.712" fill-rule="evenodd" clip-rule="evenodd" fill="#E51B23" width="337.131" height="5.669"/>
<path fill="#FFFFFF" d="M654.267,48.058l7.711-14.381l7.714,14.381c0.095-0.041,0.213-0.102,0.348-0.177
	c2.609-1.489,5.554-2.879,8.248-4.274l-3.734,19.825l8.732-9.774l2.11,7.389l12.342-2.595l-3.424,12.451l0.003,0.001l-0.168,0.612
	c-0.101,0.292-1.128,0.074-0.627,0.253c2.222,1.011,4.434,2.081,6.645,3.12c-6.359,5.166-12.692,10.423-19.102,15.515l-0.003-0.012
	l-0.003,0.001c0.002,0.007,0.003,0.02,0.006,0.011c-0.005,0.004-0.003,0.004-0.001,0.004l0.002,0.006l0-0.006
	c0.662,2.538,1.589,5.221,2.362,7.759l-3.21-0.37c-2.761-0.318-5.301-0.7-7.833-1.08c-2.477-0.372-4.948-0.743-7.431-1.034
	l0.481,12.876h-7.216l0.831-12.882c-2.516,0.294-4.993,0.666-7.477,1.038c-2.532,0.382-5.073,0.763-7.834,1.081l-3.21,0.37
	c0.276-0.906,2.365-7.741,2.362-7.758l-0.001,0.006l0.004-0.006c0.002,0,0.004,0,0.001-0.003c-0.007,0.006-0.001,0.001,0.004-0.013
	l-0.004-0.001l-0.003,0.012c-6.402-5.112-12.739-10.347-19.102-15.515c2.211-1.039,4.423-2.11,6.645-3.12
	c0.505-0.18-0.543,0.043-0.627-0.262l-0.167-0.603l0.003-0.001l-3.425-12.451l12.343,2.595l2.109-7.389l8.732,9.774l-3.735-19.825
	c2.695,1.395,5.639,2.785,8.249,4.274C654.053,47.956,654.172,48.017,654.267,48.058 M661.978,42.64l-4.111,7.667l-0.017,0.041
	c-0.678,1.211-1.661,1.815-2.811,1.971c-1.04,0.141-2.113-0.152-3.122-0.702l-0.468-0.241l2.41,12.797
	c0.318,1.458,0.175,2.592-0.231,3.417l-0.003-0.002c-0.362,0.734-0.909,1.232-1.563,1.521l0.001,0.003
	c-0.618,0.272-1.29,0.33-1.952,0.204c-0.936-0.177-1.888-0.753-2.559-1.599l-4.908-5.496l-0.17,0.594
	c-0.217,0.784-0.768,1.571-1.588,2.062c-0.673,0.403-1.513,0.617-2.467,0.473l-6.274-1.32l1.589,5.776l0.008,0.017l0.151,0.569
	c0.801,2.912,1.163,4.229-2.004,5.368l-0.191,0.09l13.809,11.217c0.654,0.515,1.141,1.223,1.401,2
	c0.26,0.78,0.303,1.643,0.071,2.468l-0.017,0.042l-0.484,1.588c1.495-0.207,2.98-0.43,4.463-0.652h0.008
	c2.824-0.424,5.639-0.847,8.724-1.176h0.008c0.124-0.013,0.213-0.019,0.267-0.019l0.008,0.008c0.716,0.005,1.46,0.34,2.042,0.827
	c0.556-0.484,1.261-0.815,1.977-0.827c0.124-0.002,0.224,0.002,0.306,0.011c3.114,0.332,5.92,0.754,8.734,1.176
	c1.482,0.223,2.967,0.445,4.461,0.652l-0.484-1.588l-0.017-0.042c-0.232-0.825-0.19-1.688,0.071-2.468c0.26-0.777,0.747-1.485,1.4-2
	l13.81-11.218l-0.191-0.09c-3.167-1.139-2.805-2.456-2.004-5.367l0.151-0.57l0.008-0.017l1.589-5.776l-6.274,1.32
	c-0.954,0.144-1.794-0.07-2.467-0.473c-0.82-0.49-1.371-1.278-1.587-2.062l-0.171-0.594l-4.909,5.495
	c-0.67,0.847-1.621,1.422-2.558,1.6c-0.657,0.125-1.326,0.066-1.943-0.204c-0.662-0.29-1.213-0.789-1.573-1.522
	c-0.406-0.826-0.55-1.959-0.233-3.418l2.412-12.797l-0.467,0.242c-1.01,0.55-2.082,0.843-3.122,0.701
	c-1.15-0.156-2.133-0.76-2.811-1.971l-0.017-0.041L661.978,42.64z"/>
<path fill="#E51B23" d="M661.978,38.158l-5.979,11.152c-0.679,1.212-1.894,1.1-3.11,0.423l-4.329-2.242l3.227,17.13
	c0.678,3.129-1.498,3.129-2.572,1.776l-7.555-8.457l-1.226,4.295c-0.142,0.564-0.764,1.156-1.696,1.015l-9.553-2.009l2.509,9.123
	c0.537,2.03,0.956,2.87-0.542,3.405l-3.405,1.6l16.445,13.357c0.651,0.505,0.979,1.414,0.748,2.237l-1.439,4.723
	c5.662-0.652,10.736-1.635,16.401-2.239c0.5-0.053,1.338,0.772,1.334,1.352l-0.75,11.633h2.753l-0.433-11.597
	c-0.004-0.579,0.756-1.442,1.256-1.389c5.665,0.605,10.739,1.587,16.401,2.239l-1.439-4.723c-0.232-0.823,0.097-1.731,0.748-2.237
	l16.445-13.357l-3.405-1.6c-1.498-0.535-1.079-1.376-0.542-3.405l2.509-9.123l-9.552,2.009c-0.933,0.141-1.555-0.451-1.696-1.015
	l-1.226-4.295l-7.555,8.457c-1.074,1.353-3.251,1.353-2.572-1.776l3.226-17.13l-4.329,2.242c-1.216,0.677-2.431,0.789-3.11-0.423
	L661.978,38.158z"/>
<path fill-rule="evenodd" clip-rule="evenodd" fill="#E51B23" d="M476.773,234.018c0.277,0.328,0.613,0.598,1.001,0.78
	c0.357,0.168,0.764,0.264,1.215,0.264c0.153,0,0.344-0.012,0.547-0.054c0.203-0.043,0.424-0.117,0.641-0.24
	c0.204-0.116,0.409-0.279,0.598-0.504c0.139-0.164,0.269-0.362,0.385-0.601c-0.427-0.113-0.839-0.259-1.232-0.431
	c-0.536-0.234-1.038-0.514-1.496-0.823c-0.507-0.342-0.968-0.725-1.368-1.123c-0.363-0.361-0.677-0.736-0.932-1.104l-0.032,0.019
	c-0.05,0.034-0.093,0.082-0.128,0.142c-0.053,0.09-0.092,0.207-0.118,0.346c-0.028,0.15-0.041,0.33-0.041,0.534
	c0,0.521,0.087,1.044,0.254,1.529C476.229,233.222,476.467,233.656,476.773,234.018 M481.672,231.671
	c0.016-0.159,0.029-0.33,0.038-0.514c0.008-0.174,0.014-0.371,0.014-0.597c0-0.945-0.11-1.893-0.272-2.826
	c-0.163-0.941-0.379-1.873-0.589-2.775l-0.01-0.042c-0.092-0.395-0.182-0.786-0.266-1.17c-0.2,0.312-0.405,0.621-0.61,0.924
	c-0.347,0.511-0.689,0.993-1.018,1.435c-0.355,0.476-0.711,0.928-1.06,1.343c-0.286,0.34-0.568,0.656-0.843,0.943
	c0.214,0.41,0.478,0.815,0.789,1.199c0.341,0.421,0.738,0.819,1.186,1.173c0.412,0.326,0.872,0.618,1.377,0.862
	c0.38,0.183,0.786,0.339,1.217,0.46L481.672,231.671z M470.367,220.799c-0.017-0.021-0.048-0.04-0.095-0.056
	c-0.072-0.023-0.172-0.036-0.302-0.036c-0.576,0-1.214,0.24-1.868,0.656c-0.732,0.467-1.479,1.148-2.185,1.961
	c-0.72,0.829-1.394,1.792-1.967,2.805c-0.45,0.795-0.837,1.622-1.134,2.438c0.844-0.348,1.794-0.81,2.734-1.364
	c0.956-0.564,1.897-1.223,2.695-1.953c0.685-0.627,1.268-1.308,1.662-2.026c0.343-0.624,0.543-1.278,0.543-1.949
	c0-0.131-0.007-0.243-0.025-0.33C470.411,220.88,470.393,220.83,470.367,220.799z M451.051,225.127
	c-0.135,0.256-0.246,0.567-0.323,0.918c-0.073,0.337-0.115,0.712-0.115,1.11c0,0.426,0.044,0.882,0.14,1.336
	c0.087,0.413,0.218,0.826,0.397,1.216c0.148,0.322,0.33,0.627,0.547,0.901c0.123,0.156,0.259,0.303,0.408,0.439
	c0.081-0.199,0.156-0.403,0.225-0.611c0.107-0.319,0.2-0.65,0.278-0.991c0.08-0.353,0.143-0.716,0.185-1.085
	c0.04-0.352,0.061-0.711,0.061-1.074c0-0.466-0.033-0.886-0.094-1.253c-0.062-0.375-0.155-0.698-0.269-0.959
	c-0.101-0.229-0.217-0.405-0.342-0.518c-0.098-0.089-0.201-0.136-0.304-0.136c-0.122,0-0.25,0.056-0.374,0.158
	C451.319,224.702,451.176,224.89,451.051,225.127z M453.941,210.189c0.458-1.127,0.755-2.08,0.835-2.706
	c-0.243,0.249-0.602,0.703-1.042,1.315c-0.712,0.994-1.578,2.374-2.457,3.965c-0.698,1.263-1.401,2.661-2.039,4.106
	c-0.401,0.907-0.775,1.831-1.105,2.75c0.465-0.492,0.925-1.041,1.372-1.627c0.812-1.062,1.583-2.245,2.272-3.435
	C452.659,213.035,453.407,211.502,453.941,210.189z M453.624,215.775c-0.963,1.609-2.073,3.165-3.266,4.497
	c-1.063,1.187-2.194,2.198-3.346,2.911c-0.175,0.356-0.442,1.039-0.725,1.92c-0.241,0.751-0.494,1.645-0.711,2.601
	c-0.177,0.778-0.33,1.594-0.433,2.401c-0.09,0.704-0.144,1.41-0.144,2.09c0,0.628,0.045,1.204,0.144,1.704
	c0.09,0.459,0.226,0.857,0.411,1.175c0.158,0.271,0.357,0.483,0.599,0.624c0.228,0.132,0.504,0.203,0.829,0.203
	c0.36,0,0.744-0.084,1.131-0.239c0.41-0.163,0.827-0.407,1.23-0.715c0.393-0.3,0.773-0.661,1.121-1.07
	c0.28-0.329,0.54-0.688,0.77-1.071c-0.4-0.246-0.761-0.535-1.082-0.857c-0.41-0.41-0.756-0.876-1.038-1.374
	c-0.311-0.55-0.545-1.142-0.702-1.748c-0.163-0.627-0.244-1.269-0.244-1.894c0-0.716,0.104-1.377,0.291-1.968
	c0.199-0.629,0.493-1.182,0.858-1.641c0.384-0.484,0.848-0.866,1.36-1.127c0.512-0.26,1.073-0.399,1.653-0.399
	c0.503,0,0.965,0.11,1.376,0.326c0.407,0.214,0.76,0.533,1.046,0.95c0.266,0.389,0.473,0.865,0.611,1.424
	c0.132,0.531,0.202,1.138,0.202,1.816c0,0.488-0.036,0.993-0.105,1.506c-0.069,0.516-0.173,1.041-0.308,1.566
	c-0.13,0.505-0.287,1.003-0.466,1.49c-0.138,0.372-0.291,0.744-0.458,1.111l0.043,0.004c0.139,0.013,0.289,0.02,0.448,0.02
	c0.713,0,1.332-0.158,1.872-0.422c0.544-0.267,1.015-0.645,1.427-1.083c0.121-0.129,0.236-0.26,0.342-0.391
	c0.095-0.117,0.189-0.24,0.28-0.367c0.252-1.157,0.719-2.361,1.343-3.529c0.651-1.217,1.473-2.399,2.404-3.455
	c1.142-1.295,2.456-2.41,3.828-3.183c1.274-0.72,2.601-1.143,3.89-1.143c0.379,0,0.764,0.038,1.129,0.134
	c0.373,0.098,0.725,0.258,1.032,0.498c0.312,0.244,0.572,0.569,0.753,0.992c0.175,0.41,0.276,0.912,0.276,1.521
	c0,1.088-0.318,2.124-0.87,3.08c-0.592,1.024-1.457,1.958-2.49,2.766c-1.088,0.851-2.367,1.566-3.711,2.105
	c-1.295,0.519-2.656,0.876-3.969,1.035l-0.059,0.419c-0.015,0.134-0.025,0.262-0.032,0.384c-0.007,0.124-0.01,0.253-0.01,0.38
	c0,0.493,0.059,0.99,0.206,1.44c0.124,0.381,0.313,0.731,0.581,1.017c0.237,0.252,0.543,0.459,0.929,0.6
	c0.364,0.133,0.803,0.208,1.328,0.208c0.818,0,1.648-0.183,2.466-0.513c0.878-0.355,1.742-0.879,2.565-1.529
	c0.506-0.4,1-0.852,1.473-1.342c0.466-0.484,0.91-1.004,1.325-1.551c0.125-0.685,0.358-1.202,0.645-1.598
	c0.279-0.386,0.605-0.656,0.929-0.858l0.347-0.659l0.382,0.286l0.11-0.049c0.122-0.053,0.23-0.1,0.308-0.139
	c0.061-0.031,0.107-0.059,0.128-0.08c0.443-0.487,0.863-0.978,1.258-1.471c0.397-0.497,0.779-1.01,1.143-1.537
	c0.356-0.516,0.693-1.047,1.01-1.593c0.304-0.523,0.588-1.059,0.849-1.606v-0.432c0-0.504,0.046-0.946,0.128-1.328
	c0.09-0.426,0.225-0.78,0.39-1.067c0.198-0.345,0.442-0.601,0.708-0.774c0.3-0.195,0.626-0.286,0.947-0.286
	c0.157,0,0.3,0.022,0.429,0.061c0.143,0.044,0.267,0.111,0.368,0.193c0.119,0.097,0.208,0.213,0.268,0.342
	c0.062,0.134,0.092,0.279,0.092,0.427c0,0.15-0.039,0.323-0.088,0.542l-0.001,0.01c-0.037,0.161-0.081,0.357-0.117,0.593
	c-0.034,0.229-0.06,0.494-0.06,0.799c0,1.269,0.472,2.73,0.982,4.31l0.006,0.019c0.627,1.943,1.311,4.062,1.311,6.326
	c0,0.199-0.006,0.401-0.018,0.606c-0.012,0.204-0.029,0.398-0.052,0.581c-0.015,0.127-0.034,0.254-0.056,0.38
	c0.276-0.084,0.547-0.19,0.814-0.322c0.41-0.203,0.813-0.469,1.207-0.807c0.361-0.309,0.715-0.677,1.064-1.113
	c0.345-0.433,0.687-0.931,1.024-1.502l0.129-0.559c0.222-0.921,0.49-1.881,0.794-2.86c0.283-0.912,0.597-1.838,0.932-2.76
	l-0.311-0.06c-0.136-0.028-0.275-0.061-0.417-0.1c-0.142-0.039-0.278-0.081-0.407-0.128l-0.297-0.108v-1.609l0.885,0.096
	c0.333,0.036,0.742,0.081,1.211,0.114c0.635-1.612,1.33-3.203,2.04-4.675c0.726-1.503,1.471-2.887,2.189-4.048
	c0.701-1.132,1.385-2.059,2.013-2.693c0.628-0.633,1.221-0.989,1.748-0.989c0.18,0,0.364,0.039,0.538,0.115
	c0.167,0.073,0.323,0.18,0.453,0.316c0.12,0.125,0.22,0.278,0.288,0.454c0.062,0.163,0.098,0.342,0.098,0.536
	c0,0.505-0.275,1.234-0.73,2.15c-0.438,0.881-1.05,1.952-1.743,3.167l-0.01,0.017c-0.966,1.693-2.096,3.672-3.133,5.8h0.923
	c0.535,0,1.047-0.002,1.499-0.009c0.503-0.007,1.021-0.02,1.547-0.039c0.516-0.018,1.051-0.045,1.601-0.08
	c0.545-0.035,1.091-0.08,1.632-0.134l0.493-0.049v1.691l-0.402,0.044c-1.623,0.178-3.079,0.311-4.376,0.4
	c-1.307,0.089-2.455,0.134-3.452,0.134h-0.37c-0.301,0.703-0.586,1.417-0.847,2.138c-0.279,0.774-0.531,1.559-0.743,2.348
	c-0.214,0.796-0.385,1.591-0.504,2.379c-0.118,0.783-0.182,1.56-0.182,2.325c0,0.608,0.04,1.115,0.125,1.53
	c0.081,0.397,0.202,0.708,0.368,0.942c0.149,0.212,0.343,0.364,0.583,0.462c0.257,0.105,0.573,0.153,0.951,0.153
	c0.683,0,1.372-0.161,2.052-0.467c0.707-0.318,1.41-0.794,2.093-1.408c0.706-0.635,1.389-1.418,2.034-2.327
	c0.648-0.913,1.259-1.954,1.817-3.104l0.24-0.496l1.285,0.988l-0.135,0.319c-0.557,1.313-1.242,2.544-2.025,3.65
	c-0.782,1.105-1.661,2.084-2.606,2.891c-0.928,0.792-1.924,1.423-2.959,1.85c-0.998,0.412-2.033,0.637-3.079,0.637
	c-0.703,0-1.329-0.103-1.874-0.31c-0.554-0.21-1.022-0.525-1.4-0.946c-0.371-0.413-0.651-0.923-0.837-1.53
	c-0.181-0.59-0.273-1.271-0.273-2.04c0-0.208,0.007-0.431,0.021-0.668l-0.261,0.232c-0.563,0.479-1.182,0.863-1.833,1.157
	c-0.629,0.284-1.293,0.484-1.972,0.606c-0.228,0.552-0.516,1.039-0.853,1.464c-0.387,0.486-0.841,0.892-1.344,1.218
	c-0.534,0.346-1.124,0.603-1.753,0.774c-0.647,0.176-1.331,0.262-2.033,0.262c-0.935,0-1.742-0.151-2.433-0.415
	c-0.766-0.293-1.39-0.727-1.89-1.249c-0.46-0.482-0.813-1.043-1.071-1.639c-0.196-0.454-0.339-0.929-0.433-1.407
	c-0.248,0.275-0.504,0.539-0.767,0.792c-0.414,0.4-0.846,0.772-1.288,1.111c-1.05,0.805-2.168,1.432-3.312,1.856
	c-1.132,0.42-2.293,0.642-3.44,0.642c-0.888,0-1.678-0.133-2.37-0.376c-0.736-0.258-1.358-0.641-1.863-1.12
	c-0.504-0.48-0.891-1.055-1.159-1.698c-0.201-0.484-0.336-1.009-0.402-1.561l-0.258,0.188c-0.588,0.406-1.196,0.675-1.808,0.842
	c-0.612,0.167-1.223,0.233-1.823,0.233c-0.115,0-0.244-0.003-0.385-0.01c-0.125-0.006-0.255-0.015-0.386-0.027l-0.418-0.051
	c-0.395,0.641-0.832,1.252-1.312,1.811c-0.485,0.565-1.018,1.079-1.594,1.517c-0.644,0.489-1.342,0.883-2.094,1.148
	c-0.705,0.249-1.458,0.387-2.255,0.387c-0.799,0-1.505-0.139-2.117-0.402c-0.636-0.273-1.169-0.681-1.599-1.207
	c-0.43-0.526-0.752-1.169-0.966-1.91c-0.214-0.744-0.321-1.582-0.321-2.501c0-2.062,0.531-4.716,1.393-7.586
	c0.96-3.195,2.337-6.667,3.85-9.885c1.609-3.419,3.381-6.555,4.986-8.778c1.526-2.112,2.936-3.424,3.969-3.424
	c0.306,0,0.576,0.101,0.809,0.275c0.239,0.179,0.435,0.435,0.587,0.736c0.153,0.303,0.268,0.659,0.344,1.027
	c0.083,0.398,0.123,0.813,0.123,1.197c0,1.149-0.359,2.695-0.987,4.402C455.59,212.119,454.697,213.982,453.624,215.775z
	 M425.803,220.799c-0.017-0.021-0.048-0.04-0.095-0.056c-0.072-0.023-0.171-0.036-0.302-0.036c-0.576,0-1.214,0.24-1.868,0.656
	c-0.732,0.467-1.479,1.148-2.185,1.961c-0.719,0.829-1.394,1.793-1.967,2.805c-0.45,0.795-0.837,1.622-1.134,2.438
	c0.844-0.348,1.794-0.81,2.733-1.364c0.956-0.564,1.898-1.223,2.695-1.953c0.686-0.627,1.267-1.308,1.662-2.026
	c0.343-0.624,0.543-1.278,0.543-1.949c0-0.131-0.007-0.243-0.026-0.33C425.847,220.88,425.828,220.83,425.803,220.799z
	 M406.115,209.784c0.391-0.95,0.637-1.767,0.7-2.343c-0.247,0.215-0.615,0.622-1.066,1.194c-0.646,0.817-1.421,1.955-2.221,3.335
	c-0.612,1.056-1.232,2.249-1.811,3.545c-0.363,0.813-0.711,1.668-1.031,2.556c0.479-0.483,0.944-1.007,1.39-1.557
	c0.783-0.965,1.509-2.014,2.148-3.06C405.011,212.164,405.661,210.888,406.115,209.784z M390.381,232.878
	c0.704-0.634,1.386-1.414,2.03-2.321c0.64-0.902,1.245-1.929,1.798-3.062c0.099-0.481,0.197-0.936,0.297-1.372
	c0.104-0.456,0.216-0.909,0.338-1.37c0.114-0.431,0.237-0.867,0.372-1.315c0.089-0.297,0.187-0.608,0.294-0.937
	c-0.291,0.059-0.578,0.112-0.86,0.158c-0.442,0.072-0.872,0.129-1.289,0.172c-0.459,0.048-0.907,0.081-1.342,0.101
	c-0.448,0.021-0.87,0.03-1.273,0.03c-0.411,0-0.819-0.014-1.223-0.04c-0.4-0.025-0.789-0.062-1.171-0.107
	c-0.341-0.04-0.699-0.091-1.066-0.148c-0.275-0.043-0.549-0.089-0.823-0.137c-0.294,0.688-0.573,1.388-0.828,2.094
	c-0.278,0.77-0.528,1.553-0.74,2.339c-0.213,0.796-0.385,1.591-0.504,2.379c-0.117,0.783-0.182,1.56-0.182,2.325
	c0,0.608,0.04,1.116,0.125,1.53c0.081,0.397,0.202,0.708,0.367,0.942c0.15,0.212,0.343,0.364,0.583,0.462
	c0.257,0.105,0.573,0.153,0.952,0.153c0.683,0,1.372-0.161,2.052-0.467C388.995,233.968,389.697,233.492,390.381,232.878z
	 M390.529,214.709c-0.985,1.726-2.138,3.746-3.191,5.918l0.574,0.091c0.32,0.048,0.634,0.09,0.942,0.123
	c0.345,0.038,0.69,0.068,1.038,0.088c0.342,0.02,0.699,0.03,1.075,0.03c0.394,0,0.794-0.013,1.205-0.041
	c0.413-0.027,0.848-0.07,1.311-0.127c0.457-0.057,0.93-0.127,1.422-0.21c0.458-0.078,0.934-0.168,1.431-0.268
	c0.794-2.163,1.717-4.368,2.695-6.448c0.998-2.122,2.05-4.111,3.074-5.791c0.985-1.614,1.957-2.956,2.846-3.877
	c0.867-0.897,1.676-1.409,2.375-1.409c0.317,0,0.593,0.097,0.829,0.265c0.247,0.176,0.446,0.429,0.602,0.727
	c0.159,0.304,0.275,0.659,0.352,1.025c0.086,0.409,0.125,0.834,0.125,1.217c0,1.124-0.313,2.52-0.872,4.021
	c-0.559,1.503-1.366,3.118-2.352,4.678c-0.911,1.443-1.978,2.842-3.144,4.066c-1.05,1.102-2.184,2.065-3.362,2.793
	c-0.237,0.58-0.473,1.289-0.696,2.064c-0.253,0.882-0.489,1.845-0.69,2.803c-0.212,1.011-0.388,2.016-0.509,2.915
	c-0.064,0.478-0.113,0.928-0.144,1.335c0.422-1.068,0.875-2.096,1.359-3.056c0.645-1.278,1.346-2.436,2.105-3.404
	c0.759-0.968,1.576-1.749,2.454-2.279c0.832-0.502,1.718-0.78,2.659-0.78c0.593,0,1.111,0.11,1.559,0.305
	c0.491,0.213,0.893,0.527,1.215,0.908c0.348,0.412,0.6,0.903,0.769,1.432c0.182,0.571,0.266,1.183,0.266,1.783
	c0,1.532-0.548,2.962-1.063,4.306c-0.431,1.124-0.838,2.185-0.838,3.121c0,0.23,0.024,0.425,0.067,0.587
	c0.043,0.158,0.103,0.284,0.177,0.377c0.07,0.088,0.157,0.153,0.255,0.196c0.11,0.048,0.238,0.071,0.378,0.071
	c0.411,0,0.897-0.174,1.419-0.486c0.57-0.341,1.18-0.844,1.788-1.467c0.365-0.374,0.727-0.79,1.077-1.237
	c0.337-0.429,0.664-0.89,0.974-1.372c0.256-1.153,0.725-2.35,1.349-3.514c0.647-1.206,1.463-2.376,2.388-3.424
	c1.142-1.295,2.455-2.41,3.827-3.183c1.275-0.72,2.602-1.143,3.89-1.143c0.379,0,0.764,0.038,1.129,0.134
	c0.373,0.098,0.725,0.258,1.032,0.498c0.312,0.244,0.572,0.569,0.753,0.992c0.176,0.41,0.276,0.912,0.276,1.521
	c0,1.088-0.318,2.124-0.871,3.08c-0.592,1.024-1.456,1.957-2.49,2.766c-1.088,0.851-2.367,1.566-3.71,2.105
	c-1.296,0.519-2.656,0.876-3.969,1.035l-0.06,0.419c-0.015,0.134-0.026,0.262-0.032,0.384c-0.007,0.124-0.01,0.253-0.01,0.38
	c0,0.493,0.059,0.99,0.206,1.44c0.124,0.381,0.313,0.731,0.581,1.017c0.237,0.252,0.543,0.459,0.929,0.6
	c0.364,0.133,0.803,0.208,1.328,0.208c0.818,0,1.647-0.183,2.466-0.513c0.877-0.355,1.742-0.879,2.565-1.529
	c0.875-0.691,1.707-1.528,2.459-2.459c0.764-0.946,1.448-1.991,2.016-3.082l0.243-0.468l1.24,0.93l-0.146,0.326
	c-0.597,1.327-1.33,2.539-2.162,3.614c-0.86,1.11-1.826,2.073-2.857,2.863c-1.05,0.805-2.168,1.432-3.311,1.856
	c-1.133,0.42-2.294,0.642-3.441,0.642c-0.888,0-1.678-0.133-2.37-0.376c-0.737-0.258-1.358-0.641-1.862-1.12
	c-0.468-0.445-0.836-0.974-1.1-1.564c-0.178-0.397-0.31-0.822-0.395-1.266c-0.12,0.143-0.243,0.282-0.366,0.417
	c-0.269,0.294-0.55,0.575-0.842,0.84c-0.767,0.695-1.585,1.25-2.433,1.626c-0.818,0.362-1.665,0.56-2.525,0.56
	c-0.527,0-0.999-0.075-1.413-0.214c-0.442-0.147-0.815-0.367-1.117-0.643c-0.321-0.293-0.563-0.648-0.725-1.049
	c-0.163-0.404-0.245-0.853-0.245-1.328c0-0.955,0.329-2.081,0.669-3.243c0.174-0.594,0.351-1.197,0.484-1.787
	c0.129-0.572,0.217-1.13,0.217-1.646c0-0.305-0.032-0.564-0.089-0.778c-0.058-0.214-0.141-0.384-0.244-0.514
	c-0.101-0.128-0.225-0.221-0.365-0.282c-0.157-0.069-0.338-0.1-0.532-0.1c-1.069,0-1.985,0.915-2.798,2.226
	c-0.849,1.368-1.582,3.172-2.26,4.842c-0.538,1.324-1.044,2.569-1.573,3.498c-0.57,0.999-1.18,1.637-1.902,1.637
	c-0.373,0-0.705-0.16-0.992-0.445c-0.279-0.276-0.516-0.672-0.704-1.149c-0.18-0.458-0.322-1.004-0.418-1.594
	c-0.096-0.591-0.147-1.224-0.147-1.858l0-0.053c-0.402,0.573-0.829,1.112-1.277,1.611c-0.671,0.747-1.395,1.408-2.155,1.963
	c-0.831,0.605-1.704,1.081-2.601,1.402c-0.87,0.311-1.766,0.478-2.67,0.478c-0.703,0-1.329-0.103-1.874-0.31
	c-0.554-0.21-1.022-0.525-1.4-0.946c-0.371-0.412-0.651-0.923-0.838-1.53c-0.181-0.591-0.273-1.271-0.273-2.04
	c0-0.609,0.069-1.327,0.193-2.121c0.131-0.839,0.323-1.755,0.56-2.711c0.247-0.996,0.544-2.041,0.873-3.092
	c0.315-1.007,0.66-2.018,1.018-3l-0.201-0.077c-0.142-0.059-0.296-0.131-0.446-0.203l-0.017-0.007
	c-0.175-0.083-0.346-0.165-0.489-0.217l-0.296-0.108v-1.605l0.494,0.051c0.222,0.022,0.448,0.093,0.705,0.174l0.016,0.005
	c0.261,0.082,0.562,0.176,0.887,0.227c0.622-1.577,1.287-3.099,1.963-4.493c0.699-1.442,1.41-2.747,2.097-3.835
	c0.68-1.079,1.345-1.954,1.961-2.551c0.622-0.602,1.211-0.936,1.743-0.936c0.179,0,0.364,0.039,0.538,0.115
	c0.166,0.072,0.323,0.178,0.453,0.316c0.12,0.125,0.22,0.278,0.288,0.455c0.062,0.163,0.098,0.342,0.098,0.536
	c0,0.985-1.07,2.859-2.472,5.315L390.529,214.709z M364.969,220.799c-0.017-0.021-0.048-0.04-0.095-0.056
	c-0.072-0.023-0.171-0.036-0.302-0.036c-0.576,0-1.214,0.24-1.868,0.656c-0.732,0.467-1.479,1.148-2.185,1.961
	c-0.719,0.828-1.393,1.792-1.967,2.805c-0.45,0.795-0.837,1.622-1.134,2.439c0.844-0.348,1.795-0.81,2.733-1.364
	c0.956-0.564,1.898-1.223,2.696-1.953c0.685-0.627,1.268-1.308,1.662-2.026c0.343-0.624,0.543-1.278,0.543-1.949
	c0-0.131-0.007-0.243-0.025-0.33C365.013,220.88,364.995,220.83,364.969,220.799z M316.735,220.799
	c-0.018-0.021-0.049-0.04-0.095-0.056c-0.072-0.023-0.172-0.036-0.302-0.036c-0.576,0-1.214,0.24-1.868,0.656
	c-0.732,0.467-1.479,1.148-2.185,1.961c-0.719,0.829-1.394,1.793-1.967,2.805c-0.45,0.795-0.837,1.622-1.134,2.438
	c0.844-0.348,1.794-0.81,2.734-1.364c0.956-0.564,1.897-1.223,2.695-1.953c0.685-0.627,1.268-1.308,1.662-2.026
	c0.343-0.624,0.543-1.278,0.543-1.949c0-0.131-0.007-0.243-0.025-0.33C316.779,220.88,316.761,220.83,316.735,220.799z
	 M293.078,234.018c0.277,0.328,0.613,0.598,1.001,0.78c0.357,0.168,0.763,0.264,1.215,0.264c0.153,0,0.344-0.012,0.547-0.054
	c0.203-0.043,0.424-0.117,0.641-0.24c0.204-0.116,0.409-0.279,0.598-0.504c0.139-0.164,0.269-0.362,0.385-0.601
	c-0.427-0.114-0.839-0.26-1.232-0.431c-0.536-0.234-1.038-0.514-1.496-0.823c-0.507-0.342-0.968-0.725-1.369-1.123
	c-0.363-0.361-0.677-0.735-0.932-1.104l-0.032,0.019c-0.05,0.034-0.093,0.082-0.128,0.142c-0.053,0.091-0.092,0.207-0.118,0.346
	c-0.028,0.15-0.041,0.33-0.041,0.533c0,0.52,0.087,1.043,0.254,1.529C292.534,233.222,292.772,233.656,293.078,234.018z
	 M297.977,231.672c0.015-0.157,0.028-0.328,0.038-0.515c0.009-0.174,0.014-0.37,0.014-0.596c0-1.892-0.444-3.805-0.861-5.599
	l-0.004-0.018c-0.094-0.404-0.187-0.803-0.273-1.196c-0.2,0.312-0.404,0.621-0.61,0.924c-0.347,0.511-0.689,0.993-1.018,1.435
	c-0.355,0.476-0.712,0.928-1.06,1.343c-0.285,0.34-0.567,0.656-0.842,0.943c0.214,0.41,0.478,0.815,0.789,1.199
	c0.341,0.42,0.738,0.818,1.186,1.172c0.413,0.326,0.873,0.618,1.376,0.862c0.38,0.183,0.787,0.339,1.217,0.46L297.977,231.672z
	 M286.672,220.799c-0.017-0.021-0.048-0.04-0.095-0.056c-0.072-0.023-0.171-0.036-0.302-0.036c-0.576,0-1.214,0.24-1.868,0.656
	c-0.732,0.467-1.479,1.148-2.184,1.961c-0.719,0.829-1.394,1.793-1.967,2.805c-0.45,0.795-0.837,1.622-1.134,2.438
	c0.844-0.348,1.794-0.81,2.733-1.364c0.956-0.564,1.897-1.223,2.695-1.953c0.686-0.627,1.268-1.308,1.662-2.026
	c0.343-0.624,0.542-1.278,0.542-1.949c0-0.131-0.007-0.243-0.025-0.33C286.716,220.88,286.697,220.83,286.672,220.799z
	 M268.407,220.502c0.675-1.757,1.378-3.573,2.097-5.365c0.871-2.17,1.755-4.271,2.617-6.115c0.873-1.868,1.726-3.466,2.524-4.598
	c0.844-1.198,1.656-1.9,2.407-1.9c0.187,0,0.366,0.043,0.53,0.12c0.165,0.078,0.313,0.192,0.435,0.332
	c0.117,0.133,0.211,0.293,0.275,0.47c0.06,0.168,0.094,0.352,0.094,0.545c0,1.103-1.341,3.888-3.055,7.449l-0.004,0.009
	c-1.493,3.102-3.277,6.804-4.682,10.417c-1.399,3.595-2.427,7.104-2.427,9.845c0,0.801,0,1.393,0.106,1.734
	c0.032,0.105,0.076,0.18,0.136,0.221c0.068,0.047,0.173,0.071,0.325,0.071c0.417,0,0.93-0.164,1.494-0.475
	c0.574-0.316,1.194-0.781,1.813-1.376c0.332-0.32,0.667-0.68,0.996-1.077c0.305-0.369,0.603-0.767,0.886-1.189
	c0.263-1.142,0.732-2.324,1.351-3.471c0.642-1.188,1.451-2.344,2.366-3.381c1.141-1.296,2.455-2.411,3.827-3.184
	c1.275-0.72,2.601-1.143,3.89-1.143c0.379,0,0.763,0.038,1.128,0.134c0.374,0.099,0.727,0.258,1.033,0.498
	c0.326,0.257,0.596,0.601,0.777,1.052c0.16,0.399,0.251,0.882,0.251,1.461c0,1.088-0.318,2.124-0.871,3.08
	c-0.592,1.024-1.457,1.958-2.49,2.766c-1.088,0.851-2.367,1.566-3.71,2.105c-1.296,0.519-2.656,0.876-3.969,1.035l-0.059,0.418
	c-0.015,0.135-0.026,0.263-0.032,0.384c-0.007,0.126-0.01,0.255-0.01,0.38c0,0.493,0.059,0.99,0.206,1.44
	c0.124,0.381,0.313,0.731,0.581,1.017c0.237,0.252,0.543,0.459,0.929,0.6c0.365,0.133,0.803,0.208,1.328,0.208
	c0.818,0,1.648-0.183,2.466-0.513c0.878-0.355,1.742-0.879,2.565-1.529c0.507-0.4,1.001-0.852,1.473-1.342
	c0.466-0.484,0.91-1.004,1.325-1.551c0.124-0.685,0.358-1.202,0.645-1.598c0.279-0.386,0.605-0.656,0.929-0.858l0.348-0.659
	l0.381,0.286l0.11-0.049c0.125-0.054,0.238-0.103,0.308-0.139c0.061-0.032,0.108-0.06,0.128-0.081
	c0.443-0.487,0.863-0.978,1.257-1.471c0.397-0.497,0.78-1.01,1.143-1.537c0.356-0.517,0.693-1.047,1.01-1.593
	c0.304-0.523,0.588-1.06,0.85-1.607v-0.432c0-0.504,0.046-0.946,0.127-1.329c0.09-0.425,0.225-0.78,0.39-1.067
	c0.198-0.345,0.442-0.601,0.708-0.774c0.3-0.195,0.626-0.286,0.947-0.286c0.157,0,0.3,0.022,0.429,0.061
	c0.143,0.044,0.266,0.11,0.368,0.193c0.119,0.097,0.208,0.213,0.268,0.342c0.062,0.134,0.092,0.279,0.092,0.427
	c0,0.15-0.039,0.323-0.088,0.542l-0.001,0.01c-0.037,0.161-0.081,0.357-0.117,0.593c-0.034,0.229-0.06,0.494-0.06,0.799
	c0,1.269,0.472,2.729,0.982,4.31l0.004,0.013c0.628,1.944,1.313,4.066,1.313,6.332c0,0.199-0.007,0.402-0.018,0.606
	c-0.012,0.204-0.029,0.398-0.052,0.581c-0.015,0.127-0.034,0.254-0.056,0.38c0.276-0.083,0.547-0.19,0.814-0.322
	c0.41-0.203,0.813-0.468,1.208-0.806c0.239-0.205,0.478-0.439,0.715-0.704c0.228-0.253,0.453-0.534,0.676-0.843
	c0.28-1.112,0.75-2.259,1.361-3.369c0.632-1.15,1.419-2.266,2.306-3.272c1.141-1.296,2.455-2.411,3.827-3.184
	c1.274-0.72,2.601-1.143,3.89-1.143c0.38,0,0.764,0.038,1.129,0.134c0.373,0.098,0.725,0.258,1.032,0.498
	c0.313,0.244,0.572,0.569,0.754,0.992c0.175,0.41,0.276,0.912,0.276,1.521c0,1.088-0.318,2.124-0.871,3.08
	c-0.592,1.024-1.457,1.957-2.49,2.766c-1.088,0.851-2.367,1.566-3.711,2.105c-1.296,0.519-2.655,0.876-3.969,1.035l-0.06,0.419
	c-0.015,0.134-0.025,0.262-0.032,0.384c-0.007,0.124-0.01,0.253-0.01,0.38c0,0.493,0.059,0.99,0.206,1.44
	c0.124,0.381,0.313,0.731,0.581,1.017c0.237,0.252,0.543,0.459,0.929,0.6c0.365,0.133,0.803,0.208,1.328,0.208
	c0.818,0,1.648-0.183,2.466-0.513c0.878-0.355,1.742-0.879,2.565-1.529c0.808-0.639,1.579-1.401,2.284-2.247
	c0.717-0.86,1.369-1.809,1.926-2.804c0.161-0.329,0.34-0.702,0.535-1.122c0.16-0.342,0.336-0.729,0.529-1.164
	c0.315-0.712,0.642-1.484,0.962-2.293c0.303-0.766,0.612-1.588,0.913-2.458l-0.077-0.11c-0.055-0.086-0.105-0.177-0.147-0.273
	c-0.051-0.118-0.092-0.245-0.119-0.378c-0.026-0.129-0.041-0.262-0.041-0.398c0-0.383,0.059-0.748,0.156-1.084
	c0.11-0.379,0.27-0.723,0.454-1.02c0.235-0.381,0.515-0.692,0.781-0.914c0.336-0.281,0.676-0.437,0.915-0.437
	c0.544,0,0.816,0.303,0.952,0.667c0.116,0.312,0.116,0.648,0.116,0.843c0,0.131-0.046,0.326-0.113,0.542
	c-0.061,0.201-0.137,0.416-0.207,0.614l-0.167,0.479c0,0.419,0.627,0.869,1.381,1.409c0.68,0.488,1.447,1.037,2.058,1.781
	c0.624,0.759,1.071,1.705,1.071,2.955c0,1.564-0.68,3.149-1.296,4.586l-0.002,0.004c-0.477,1.112-0.913,2.13-0.913,2.882
	c0,0.202,0.026,0.361,0.073,0.482c0.04,0.104,0.094,0.179,0.158,0.232c0.069,0.056,0.159,0.096,0.262,0.122
	c0.112,0.03,0.244,0.042,0.384,0.042c0.527,0,1.097-0.168,1.678-0.454c0.665-0.327,1.342-0.808,1.985-1.373
	c0.633-0.555,1.234-1.19,1.762-1.841c0.537-0.661,0.998-1.339,1.342-1.964l0.125-2.43c0.023-0.416,0.043-0.762,0.084-1.053
	c0.044-0.315,0.113-0.57,0.233-0.781c0.141-0.249,0.335-0.421,0.607-0.53c0.246-0.098,0.55-0.14,0.937-0.14
	c0.309,0,0.559,0.028,0.767,0.095c0.236,0.075,0.413,0.198,0.548,0.38c0.122,0.165,0.196,0.364,0.236,0.609
	c0.037,0.221,0.047,0.476,0.047,0.779c0,0.468-0.024,0.997-0.059,1.562c-0.036,0.575-0.083,1.154-0.13,1.743
	c-0.052,0.655-0.106,1.325-0.144,1.95c-0.039,0.636-0.065,1.265-0.065,1.863c0,0.417,0.013,0.769,0.043,1.057
	c0.028,0.277,0.073,0.499,0.138,0.668c0.043,0.114,0.096,0.194,0.157,0.24c0.057,0.041,0.133,0.062,0.231,0.062
	c0.349,0,0.761-0.209,1.21-0.571c0.533-0.43,1.104-1.071,1.683-1.839c0.684-0.908,1.368-1.985,2.008-3.107
	c0.726-1.273,1.399-2.609,1.949-3.822c0.036-0.985,0.113-1.793,0.224-2.45c0.117-0.685,0.275-1.217,0.467-1.624
	c0.217-0.46,0.479-0.773,0.777-0.973c0.309-0.208,0.648-0.291,1.009-0.291c0.286,0,0.544,0.057,0.771,0.154
	c0.254,0.108,0.468,0.267,0.643,0.451c0.199,0.21,0.349,0.458,0.452,0.707c0.118,0.286,0.175,0.577,0.175,0.817
	c0,0.258-0.058,0.498-0.152,0.743c-0.086,0.224-0.205,0.45-0.337,0.704l-0.001,0.005c-0.436,0.837-1.057,2.031-1.057,4.473
	c0,0.352,0.013,0.725,0.058,1.077c0.044,0.347,0.12,0.683,0.247,0.972c0.111,0.255,0.266,0.473,0.477,0.624
	c0.21,0.15,0.487,0.238,0.848,0.238c0.257,0,0.505-0.043,0.745-0.138c0.249-0.099,0.494-0.253,0.736-0.47
	c0.067-0.06,0.139-0.131,0.215-0.21l0.174-0.194c0.262-1.142,0.729-2.322,1.346-3.467c0.645-1.195,1.457-2.356,2.373-3.396
	c1.142-1.295,2.456-2.41,3.828-3.183c1.275-0.72,2.601-1.143,3.89-1.143c0.379,0,0.763,0.038,1.129,0.134
	c0.373,0.098,0.725,0.258,1.032,0.498c0.312,0.244,0.572,0.569,0.753,0.992c0.175,0.41,0.276,0.912,0.276,1.521
	c0,1.088-0.318,2.124-0.87,3.08c-0.592,1.024-1.457,1.958-2.49,2.766c-1.088,0.851-2.367,1.566-3.711,2.105
	c-1.295,0.519-2.655,0.876-3.969,1.035l-0.059,0.419c-0.015,0.134-0.025,0.262-0.032,0.384c-0.007,0.124-0.01,0.253-0.01,0.38
	c0,0.493,0.059,0.99,0.206,1.44c0.124,0.381,0.312,0.731,0.581,1.017c0.237,0.252,0.543,0.459,0.929,0.6
	c0.364,0.133,0.803,0.208,1.328,0.208c0.818,0,1.648-0.183,2.466-0.513c0.878-0.355,1.742-0.879,2.565-1.529
	c0.875-0.692,1.706-1.528,2.458-2.459c0.764-0.945,1.448-1.991,2.015-3.081l0.243-0.468l1.241,0.93l-0.147,0.327
	c-0.596,1.326-1.33,2.538-2.162,3.612c-0.86,1.11-1.826,2.074-2.857,2.864c-1.05,0.805-2.168,1.432-3.311,1.856
	c-1.133,0.42-2.293,0.642-3.44,0.642c-0.888,0-1.678-0.133-2.37-0.376c-0.736-0.258-1.358-0.641-1.862-1.12
	c-0.531-0.504-0.931-1.115-1.2-1.8c-0.237-0.603-0.371-1.265-0.403-1.961c-0.255,0.136-0.511,0.239-0.764,0.314
	c-0.406,0.12-0.804,0.169-1.182,0.169c-0.561,0-1.083-0.106-1.558-0.319c-0.47-0.21-0.89-0.525-1.252-0.943
	c-0.306-0.354-0.569-0.78-0.784-1.278c-0.117-0.272-0.22-0.566-0.309-0.884c-0.516,0.935-1.084,1.864-1.685,2.737
	c-0.695,1.009-1.435,1.947-2.188,2.736c-0.742,0.777-1.504,1.418-2.26,1.855c-0.716,0.415-1.431,0.649-2.122,0.649
	c-0.564,0-1.035-0.153-1.425-0.438c-0.381-0.279-0.677-0.681-0.898-1.187c-0.203-0.464-0.344-1.019-0.433-1.646
	c-0.087-0.618-0.125-1.304-0.125-2.042l0.004-0.121c-0.268,0.356-0.551,0.704-0.847,1.038c-0.501,0.566-1.037,1.093-1.596,1.562
	c-0.838,0.702-1.739,1.282-2.669,1.678c-0.871,0.37-1.768,0.581-2.665,0.581c-0.536,0-1.029-0.078-1.468-0.225
	c-0.457-0.152-0.854-0.38-1.179-0.669c-0.333-0.297-0.593-0.659-0.768-1.076c-0.171-0.407-0.262-0.862-0.262-1.353
	c0-1.429,0.658-2.997,1.299-4.522c0.291-0.693,0.578-1.376,0.789-2.014c0.207-0.624,0.343-1.212,0.343-1.73
	c0-0.712-0.226-1.221-0.56-1.625c-0.338-0.41-0.802-0.732-1.259-1.044c-0.258,0.643-0.524,1.283-0.792,1.906
	c-0.333,0.776-0.673,1.536-1.007,2.256c-0.37,0.798-0.727,1.535-1.053,2.179c-0.343,0.677-0.651,1.25-0.903,1.682l-0.407,0.697
	l-0.047-0.089c-0.464,0.703-0.97,1.359-1.508,1.961c-0.66,0.738-1.367,1.396-2.108,1.964c-1.05,0.805-2.168,1.432-3.311,1.856
	c-1.133,0.42-2.293,0.642-3.44,0.642c-0.888,0-1.678-0.133-2.37-0.376c-0.736-0.258-1.358-0.641-1.863-1.12
	c-0.531-0.505-0.931-1.116-1.2-1.8c-0.21-0.535-0.34-1.117-0.388-1.727c-0.514,0.41-1.071,0.745-1.654,1.009
	c-0.629,0.284-1.293,0.484-1.972,0.606c-0.228,0.552-0.516,1.04-0.853,1.464c-0.387,0.486-0.84,0.892-1.344,1.218
	c-0.534,0.346-1.124,0.603-1.753,0.774c-0.647,0.176-1.332,0.262-2.033,0.262c-0.935,0-1.742-0.151-2.433-0.415
	c-0.767-0.293-1.391-0.727-1.89-1.249c-0.46-0.482-0.812-1.043-1.071-1.639c-0.196-0.454-0.339-0.929-0.433-1.407
	c-0.248,0.275-0.504,0.539-0.767,0.792c-0.415,0.4-0.845,0.772-1.288,1.111c-1.05,0.805-2.168,1.432-3.311,1.856
	c-1.133,0.42-2.294,0.642-3.441,0.642c-0.888,0-1.678-0.133-2.37-0.376c-0.736-0.258-1.357-0.641-1.862-1.12
	c-0.479-0.455-0.852-0.997-1.118-1.604c-0.18-0.411-0.311-0.851-0.393-1.313l-0.321,0.362c-0.268,0.293-0.54,0.566-0.812,0.817
	c-0.831,0.767-1.712,1.38-2.589,1.798c-0.871,0.415-1.742,0.641-2.56,0.641c-0.53,0-0.988-0.092-1.383-0.255
	c-0.439-0.18-0.793-0.446-1.075-0.766c-0.31-0.353-0.531-0.772-0.676-1.217c-0.162-0.496-0.232-1.024-0.232-1.527
	c0-0.259,0.02-0.561,0.057-0.901c0.038-0.344,0.093-0.72,0.164-1.121l0.065-0.354c-0.42,0.597-0.849,1.166-1.281,1.698
	c-0.718,0.885-1.447,1.671-2.168,2.329c-0.799,0.728-1.597,1.307-2.372,1.7c-0.757,0.383-1.496,0.591-2.196,0.591
	c-0.491,0-1.015-0.105-1.51-0.326c-0.451-0.202-0.879-0.5-1.238-0.902c-0.319-0.356-0.583-0.793-0.762-1.315
	c-0.161-0.47-0.254-1.009-0.254-1.619c0-1.34,0.45-2.934,1.216-4.555c0.783-1.658,1.898-3.35,3.199-4.829
	c1.202-1.367,2.569-2.56,3.986-3.387c1.297-0.757,2.639-1.207,3.941-1.207c0.353,0,0.673,0.035,0.957,0.104
	c0.292,0.071,0.545,0.18,0.753,0.327c0.224,0.158,0.397,0.358,0.514,0.597c0.112,0.231,0.17,0.495,0.17,0.793
	C268.421,220.344,268.415,220.424,268.407,220.502z M267.935,221.73l-0.418-0.596c-0.104-0.148-0.26-0.262-0.463-0.34
	c-0.226-0.087-0.51-0.13-0.85-0.13c-0.881,0-1.749,0.316-2.573,0.845c-0.953,0.613-1.848,1.51-2.639,2.538
	c-0.965,1.255-1.774,2.703-2.352,4.075c-0.612,1.453-0.962,2.814-0.962,3.764c0,0.283,0.031,0.536,0.09,0.753
	c0.058,0.212,0.141,0.391,0.245,0.53c0.095,0.127,0.212,0.224,0.347,0.29c0.133,0.065,0.288,0.099,0.461,0.099
	c0.543,0,1.228-0.309,1.997-0.889c0.792-0.598,1.659-1.477,2.54-2.599c0.84-1.069,1.688-2.355,2.494-3.824
	C266.594,224.891,267.302,223.377,267.935,221.73z M208.302,233.449c0.101,0.135,0.226,0.242,0.372,0.313
	c0.143,0.07,0.31,0.107,0.498,0.107c0.408,0,0.866-0.159,1.348-0.448c0.523-0.314,1.072-0.78,1.613-1.363
	c0.557-0.6,1.102-1.318,1.604-2.119c0.474-0.756,0.912-1.589,1.288-2.468c-0.078-0.339-0.137-0.697-0.178-1.086
	c-0.045-0.427-0.067-0.888-0.067-1.395c0-0.461,0.02-0.895,0.057-1.301c0.039-0.426,0.095-0.809,0.167-1.151
	c0.064-0.307,0.14-0.585,0.226-0.834l0.083-0.224c-0.687,0.12-1.345,0.397-1.964,0.79c-0.877,0.557-1.675,1.345-2.373,2.248
	c-0.899,1.163-1.631,2.514-2.151,3.811c-0.569,1.421-0.883,2.771-0.883,3.733c0,0.303,0.034,0.575,0.097,0.811
	C208.098,233.101,208.188,233.296,208.302,233.449z M221.92,229.995c0.204-0.19,0.41-0.427,0.617-0.714
	c0.205-0.283,0.411-0.614,0.618-0.993c0.126-0.503,0.275-1.02,0.438-1.535c0.17-0.536,0.355-1.06,0.547-1.556
	c0.439-1.133,0.935-2.15,1.415-2.864c0.482-0.717,0.978-1.153,1.434-1.153c0.129,0,0.308,0.037,0.507,0.104
	c0.173,0.059,0.368,0.143,0.561,0.247c0.165,0.09,0.336,0.196,0.494,0.316c0.144,0.109,0.282,0.231,0.403,0.364l0.236,0.254
	L229,222.757c-0.294,0.455-0.69,1.195-1.094,2.089c-0.346,0.766-0.697,1.637-0.994,2.528c-0.245,0.735-0.456,1.49-0.6,2.219
	c-0.126,0.637-0.201,1.251-0.201,1.807c0,0.259,0.017,0.705,0.104,1.156c0.057,0.293,0.144,0.587,0.275,0.831
	c0.091,0.169,0.204,0.314,0.343,0.406c0.115,0.076,0.254,0.121,0.42,0.121c1.026,0,2.285-1.495,3.514-3.441
	c1.27-2.013,2.487-4.5,3.404-6.375c0.291-0.593,0.581-1.186,0.88-1.774l0.328,0.061c0.127,0.023,0.331,0.062,0.563,0.117
	c0.238,0.057,0.507,0.133,0.761,0.232c0.291,0.113,0.567,0.258,0.775,0.442c0.239,0.213,0.392,0.476,0.392,0.799
	c0,0.226-0.257,0.819-0.623,1.662l-0.013,0.029c-0.427,0.985-1.012,2.331-1.491,3.69c-0.471,1.337-0.836,2.682-0.836,3.683
	c0,0.243,0.023,0.46,0.073,0.644c0.043,0.159,0.105,0.293,0.19,0.396c0.072,0.089,0.167,0.158,0.284,0.205
	c0.123,0.049,0.277,0.075,0.463,0.075c0.44,0,0.992-0.179,1.607-0.523c0.615-0.344,1.284-0.851,1.96-1.507
	c0.631-0.612,1.266-1.352,1.865-2.208c0.552-0.788,1.077-1.68,1.546-2.665l0.227-0.477l1.301,0.901l-0.133,0.331
	c-0.471,1.182-1.057,2.276-1.719,3.254c-0.697,1.028-1.478,1.931-2.299,2.679c-0.849,0.773-1.747,1.385-2.645,1.802
	c-0.893,0.414-1.788,0.638-2.64,0.638c-0.579,0-1.077-0.084-1.502-0.237c-0.464-0.168-0.839-0.417-1.134-0.73
	c-0.316-0.335-0.539-0.738-0.684-1.187c-0.155-0.48-0.223-1.011-0.223-1.567l0.001-0.101c-0.139,0.209-0.28,0.412-0.422,0.608
	c-0.377,0.521-0.77,1.004-1.178,1.428c-0.517,0.537-1.058,0.979-1.623,1.289c-0.58,0.318-1.184,0.496-1.811,0.496
	c-0.545,0-1.048-0.134-1.498-0.376c-0.469-0.252-0.878-0.621-1.215-1.074c-0.338-0.455-0.603-0.995-0.782-1.587
	c-0.176-0.584-0.271-1.221-0.271-1.877l0.002-0.132c-0.36,0.275-0.727,0.477-1.091,0.618c-0.5,0.193-0.996,0.273-1.468,0.273
	c-0.472,0-0.945-0.08-1.403-0.236c-0.448-0.154-0.883-0.383-1.289-0.686c-0.345-0.257-0.67-0.567-0.965-0.93
	c-0.167-0.206-0.325-0.428-0.471-0.667c-0.42,0.883-0.88,1.703-1.373,2.443c-0.582,0.875-1.213,1.643-1.882,2.277
	c-0.691,0.655-1.425,1.171-2.193,1.521c-0.746,0.34-1.522,0.522-2.318,0.522c-0.601,0-1.145-0.104-1.624-0.297
	c-0.502-0.203-0.932-0.503-1.282-0.883c-0.355-0.385-0.626-0.852-0.808-1.381c-0.18-0.522-0.272-1.106-0.272-1.733
	c0-1.314,0.404-2.901,1.1-4.516c0.696-1.616,1.688-3.268,2.862-4.708c1.061-1.302,2.274-2.435,3.555-3.216
	c1.171-0.714,2.402-1.139,3.631-1.139c0.308,0,0.583,0.03,0.828,0.084c0.249,0.055,0.465,0.136,0.651,0.238
	c0.169,0.092,0.315,0.201,0.438,0.323c0.077,0.076,0.146,0.157,0.207,0.241l0.086-0.001c0.279,0,0.528,0.059,0.746,0.16
	c0.246,0.113,0.449,0.276,0.613,0.465c0.189,0.217,0.328,0.471,0.423,0.719c0.117,0.309,0.17,0.613,0.17,0.83
	c0,0.546-0.305,1.207-0.666,1.988c-0.475,1.027-1.058,2.289-1.058,3.582c0,0.465,0.072,0.888,0.199,1.262
	c0.135,0.398,0.333,0.744,0.574,1.029c0.251,0.298,0.55,0.531,0.87,0.689c0.318,0.157,0.661,0.24,1.003,0.24
	c0.252,0,0.497-0.047,0.736-0.149C221.428,230.388,221.673,230.224,221.92,229.995z M181.824,236.609
	c0.25-0.312,0.56-0.594,0.932-0.836c0.357-0.234,0.773-0.435,1.25-0.597l0.824-0.282l-0.251,0.835
	c-0.057,0.194-0.106,0.379-0.145,0.556c-0.041,0.187-0.076,0.377-0.104,0.565c-0.029,0.198-0.05,0.39-0.064,0.574
	c-0.015,0.196-0.021,0.386-0.021,0.564c0,1.124,0.293,2.03,0.878,2.635c0.278,0.288,0.628,0.513,1.048,0.665
	c0.417,0.151,0.908,0.23,1.471,0.23c1.385,0,2.563-0.489,3.564-1.283c1.019-0.808,1.861-1.933,2.555-3.183
	c0.708-1.276,1.264-2.686,1.701-4.03c0.438-1.351,0.755-2.638,0.984-3.663c0.096-0.432,0.205-0.956,0.325-1.548
	c0.319-1.6,0.636-3.2,0.961-4.799c-0.266,0.405-0.54,0.792-0.822,1.161c-0.61,0.797-1.263,1.511-1.961,2.118
	c-0.824,0.718-1.714,1.29-2.677,1.682c-0.967,0.393-2.006,0.607-3.126,0.607c-0.865,0-1.613-0.128-2.252-0.365
	c-0.679-0.253-1.234-0.63-1.675-1.111c-0.461-0.503-0.793-1.115-1.01-1.81c-0.226-0.724-0.331-1.541-0.331-2.423
	c0-2.454,0.813-5.397,1.598-8.232l0.005-0.017c0.714-2.582,1.404-5.076,1.404-6.959c0-0.489-0.045-0.954-0.147-1.365
	c-0.09-0.363-0.225-0.684-0.413-0.941c-0.162-0.22-0.368-0.398-0.623-0.517c-0.244-0.114-0.538-0.177-0.888-0.177
	c-0.579,0-1.097,0.173-1.552,0.471c-0.522,0.342-0.97,0.848-1.342,1.444c-0.453,0.726-0.797,1.586-1.033,2.459
	c-0.268,0.986-0.398,1.986-0.398,2.826c0,0.199,0.008,0.392,0.022,0.576c0.015,0.194,0.037,0.377,0.064,0.546
	c0.027,0.169,0.062,0.331,0.102,0.481c0.039,0.145,0.083,0.277,0.131,0.391l0.258,0.621h-0.673c-0.56,0-1.046-0.08-1.462-0.225
	c-0.456-0.159-0.826-0.394-1.118-0.686c-0.316-0.316-0.542-0.698-0.691-1.125c-0.158-0.45-0.228-0.947-0.228-1.464
	c0-1.012,0.272-2.07,0.76-3.079c0.492-1.018,1.204-1.99,2.077-2.817c0.826-0.782,1.799-1.441,2.869-1.893
	c0.994-0.42,2.07-0.662,3.187-0.662c0.777,0,1.453,0.118,2.035,0.327c0.643,0.23,1.172,0.572,1.598,0.985
	c0.475,0.461,0.819,1.011,1.048,1.598c0.252,0.645,0.366,1.337,0.366,2.005c0,1.567-0.624,3.797-1.302,6.224
	c-0.792,2.83-1.66,5.935-1.66,8.454c0,0.645,0.058,1.227,0.18,1.727c0.114,0.467,0.284,0.867,0.514,1.183
	c0.209,0.287,0.474,0.511,0.799,0.66c0.318,0.146,0.701,0.224,1.152,0.224c0.777,0,1.527-0.236,2.242-0.65
	c0.805-0.466,1.568-1.158,2.284-1.999c0.828-0.973,1.595-2.148,2.287-3.41c0.819-1.49,1.534-3.098,2.132-4.637
	c0.385-1.594,0.791-3.167,1.215-4.635c0.426-1.477,0.866-2.836,1.315-3.985c0.467-1.197,0.954-2.19,1.459-2.889
	c0.545-0.755,1.126-1.183,1.744-1.183c0.196,0,0.427,0.045,0.679,0.13c0.235,0.08,0.491,0.195,0.75,0.344
	c0.236,0.135,0.481,0.299,0.721,0.488c0.223,0.176,0.444,0.374,0.651,0.593l0.24,0.252l-0.185,0.296
	c-0.755,1.203-1.361,2.253-1.898,3.373c-0.537,1.119-1.011,2.316-1.503,3.817c-0.496,1.514-1.009,3.327-1.619,5.665
	c-0.608,2.329-1.322,5.211-2.218,8.854c-0.466,1.898-0.966,3.905-1.591,5.858c-0.626,1.958-1.377,3.855-2.341,5.516
	c-0.981,1.69-2.183,3.14-3.698,4.169c-1.522,1.035-3.354,1.643-5.582,1.643c-0.919,0-1.798-0.106-2.597-0.315
	c-0.793-0.207-1.506-0.515-2.1-0.918c-0.586-0.399-1.058-0.893-1.379-1.476c-0.306-0.556-0.475-1.189-0.475-1.896
	c0-0.434,0.064-0.85,0.195-1.241C181.37,237.292,181.564,236.934,181.824,236.609z"/>
<path fill="#010005" d="M685.443,184.037c2.827,0,4.896-1.049,6.673-2.885l-1.982-2.389c-1.282,1.224-2.564,2.127-4.517,2.127
	c-3.206,0-5.624-2.885-5.624-7.314v-0.117c0-4.342,2.418-7.256,5.624-7.256c1.836,0,3.176,0.874,4.371,1.982l2.04-2.594
	c-1.661-1.515-3.555-2.535-6.411-2.535c-5.275,0-9.121,4.226-9.121,10.403v0.204C676.496,179.899,680.226,184.037,685.443,184.037
	 M657.409,183.746h3.322v-14.017l9.238,14.017h2.856v-20.399h-3.293v13.609l-8.976-13.609h-3.147V183.746z M649.453,183.746h3.38
	v-20.399h-3.38V183.746z M631.677,184.008c3.818,0,6.615-2.302,6.615-5.886v-0.058c0-2.972-1.748-4.546-5.537-6.003
	c-3.468-1.34-4.226-2.098-4.226-3.526v-0.029c0-1.34,1.137-2.361,2.972-2.361c1.632,0,3.177,0.787,4.575,1.923l1.923-2.593
	c-1.865-1.632-4.051-2.39-6.411-2.39c-3.789,0-6.47,2.36-6.47,5.712v0.058c0,3.264,2.011,4.692,5.887,6.149
	c3.235,1.195,3.905,2.04,3.905,3.322v0.029c0,1.515-1.253,2.594-3.206,2.594c-2.156,0-3.847-1.049-5.362-2.419l-2.04,2.535
	C626.519,183.105,629.054,184.008,631.677,184.008z M609.209,183.746h12.997v-3.06h-9.646v-5.683h8.422v-3.06h-8.422v-5.537h9.5
	v-3.06h-12.851V183.746z M599.418,184.037c2.827,0,4.896-1.049,6.673-2.885l-1.982-2.389c-1.282,1.224-2.564,2.127-4.517,2.127
	c-3.206,0-5.624-2.885-5.624-7.314v-0.117c0-4.342,2.419-7.256,5.624-7.256c1.836,0,3.176,0.874,4.371,1.982l2.04-2.594
	c-1.661-1.515-3.555-2.535-6.411-2.535c-5.275,0-9.121,4.226-9.121,10.403v0.204C590.471,179.899,594.201,184.037,599.418,184.037z
	 M571.383,183.746h3.322v-14.017l9.238,14.017h2.856v-20.399h-3.293v13.609l-8.976-13.609h-3.147V183.746z M556.376,175.936
	l2.914-8.189l2.914,8.189H556.376z M550.227,183.746h3.409l1.69-4.808h7.927l1.69,4.808h3.526l-7.49-20.515h-3.264L550.227,183.746z
	 M543.787,183.746h3.38v-20.399h-3.38V183.746z M528.4,183.746h12.123v-3.118h-8.743v-17.281h-3.38V183.746z M514.82,174.071v-7.635
	h2.944c2.593,0,4.109,1.34,4.109,3.788v0.029c0,2.273-1.515,3.817-4.109,3.817H514.82z M511.44,183.746h3.38v-6.615h2.944
	c4.225-0.058,7.547-2.419,7.547-6.936v-0.058c0-4.226-2.885-6.79-7.344-6.79h-6.528V183.746z M497.86,174.071v-7.635h2.943
	c2.593,0,4.109,1.34,4.109,3.788v0.029c0,2.273-1.515,3.817-4.109,3.817H497.86z M494.479,183.746h3.38v-6.615h2.943
	c4.225-0.058,7.547-2.419,7.547-6.936v-0.058c0-4.226-2.885-6.79-7.344-6.79h-6.528V183.746z M479.472,175.936l2.914-8.189
	l2.914,8.189H479.472z M473.323,183.746h3.41l1.69-4.808h7.927l1.69,4.808h3.526l-7.489-20.515h-3.264L473.323,183.746z
	 M452.312,175.936l2.914-8.189l2.914,8.189H452.312z M446.163,183.746h3.41l1.69-4.808h7.926l1.69,4.808h3.526l-7.489-20.515h-3.264
	L446.163,183.746z M435.439,166.407c3.73,0,6.207,2.681,6.207,7.081v0.175c0,4.371-2.477,7.023-6.207,7.023h-2.827v-14.279H435.439z
	 M429.232,183.746h6.236c5.828,0,9.675-4.138,9.675-10.112v-0.233c0-5.974-3.847-10.054-9.675-10.054h-6.236V183.746z
	 M414.224,175.936l2.914-8.189l2.914,8.189H414.224z M408.076,183.746h3.41l1.69-4.808h7.927l1.69,4.808h3.526l-7.489-20.515h-3.264
	L408.076,183.746z M389.746,183.746h3.322v-14.017l9.238,14.017h2.856v-20.399h-3.293v13.609l-8.976-13.609h-3.147V183.746z
	 M374.738,175.936l2.914-8.189l2.914,8.189H374.738z M368.589,183.746h3.41l1.69-4.808h7.926l1.69,4.808h3.526l-7.489-20.515h-3.264
	L368.589,183.746z M360.313,184.037c2.827,0,4.896-1.049,6.673-2.885l-1.982-2.389c-1.282,1.224-2.564,2.127-4.517,2.127
	c-3.206,0-5.624-2.885-5.624-7.314v-0.117c0-4.342,2.419-7.256,5.624-7.256c1.836,0,3.176,0.874,4.371,1.982l2.04-2.594
	c-1.661-1.515-3.555-2.535-6.411-2.535c-5.275,0-9.121,4.226-9.121,10.403v0.204C351.366,179.899,355.097,184.037,360.313,184.037z"
	/>
</svg>
